visits,percent_new_visits,organic_searches,bounces,entrance_bounce_rate,avg_time_on_page,visitor_type,source
917,100.0,0,462,50.38167938931297,68.6019445238776,New Visitor,(direct)
867,100.0,0,405,46.71280276816609,60.00814566363201,New Visitor,(direct)
931,100.0,0,468,50.26852846401718,65.11773185968285,New Visitor,(direct)
786,100.0,0,410,52.16284987277354,71.7532637075718,New Visitor,(direct)
424,100.0,0,209,49.29245283018868,67.19594121763471,New Visitor,(direct)
398,100.0,0,160,40.20100502512563,65.48005066497784,New Visitor,(direct)
407,100.0,0,203,49.877149877149876,56.870493009565855,New Visitor,(direct)
455,100.0,0,191,41.97802197802198,55.24577167019027,New Visitor,(direct)
350,100.0,0,184,52.57142857142857,68.5743162901308,New Visitor,(direct)
228,100.0,0,95,41.66666666666667,57.188745603751464,New Visitor,(direct)
793,100.0,0,468,59.01639344262295,61.043397968605724,New Visitor,(direct)
972,100.0,0,558,57.407407407407405,68.09623593325573,New Visitor,(direct)
783,100.0,0,485,61.94125159642401,68.20543032786885,New Visitor,(direct)
820,100.0,0,498,60.731707317073166,66.93933906745133,New Visitor,(direct)
896,100.0,0,538,60.04464285714286,64.1198347107438,New Visitor,(direct)
1041,100.0,0,613,58.88568683957733,60.32665505226481,New Visitor,(direct)
1120,100.0,0,609,54.37499999999999,65.43577875491785,New Visitor,(direct)
804,100.0,0,409,50.93399750933998,64.60910264686895,New Visitor,(direct)
673,100.0,0,366,54.38335809806835,69.89626556016597,New Visitor,(direct)
951,100.0,0,387,40.694006309148264,75.244154848601,New Visitor,(direct)
767,100.0,0,404,52.672750977835726,78.6931931931932,New Visitor,(direct)
1007,100.0,0,641,63.65441906653426,64.30705212439773,New Visitor,(direct)
1110,100.0,0,674,60.72072072072072,71.29331823329558,New Visitor,(direct)
1440,100.0,0,921,63.95833333333333,69.2052881758764,New Visitor,(direct)
1634,100.0,0,873,53.42717258261934,69.19759704251386,New Visitor,(direct)
1300,100.0,0,592,45.53846153846154,70.71872227151731,New Visitor,(direct)
1019,100.0,0,566,55.54465161923454,65.23910050481872,New Visitor,(direct)
903,100.0,0,449,49.72314507198228,70.65863962822138,New Visitor,(direct)
1091,100.0,0,314,28.780934922089823,79.13210611802924,New Visitor,(direct)
892,100.0,0,429,48.09417040358744,74.70808383233533,New Visitor,(direct)
1042,100.0,0,507,48.65642994241843,65.44857142857143,New Visitor,(direct)
6,100.0,0,5,83.33333333333334,41.81818181818182,New Visitor,160by2.com
6,100.0,0,1,16.666666666666664,57.22222222222222,New Visitor,160by2.com
9,100.0,0,8,88.88888888888889,190.33333333333334,New Visitor,160by2.com
34,100.0,0,25,73.52941176470588,194.71428571428572,New Visitor,160by2.com
11,100.0,0,7,63.63636363636363,91.1,New Visitor,160by2.com
8,100.0,0,7,87.5,31.0,New Visitor,160by2.com
12,100.0,0,5,41.66666666666667,41.16981132075472,New Visitor,160by2.com
1,100.0,0,1,100.0,0.0,New Visitor,160by2.com
1,100.0,0,1,100.0,0.0,New Visitor,172.32.0.90
1,100.0,0,0,0.0,62.875,New Visitor,174.143.237.122
1,100.0,0,1,100.0,0.0,New Visitor,175.41.135.207
1,100.0,0,0,0.0,20.5,New Visitor,175.41.140.84
1,100.0,0,0,0.0,202.0,New Visitor,175.41.140.84
5,100.0,0,3,60.0,51.714285714285715,New Visitor,180.150.140.180
1,100.0,0,0,0.0,2.0,New Visitor,180.150.140.180
2,100.0,0,1,50.0,128.83333333333334,New Visitor,180.150.140.180
2,100.0,0,1,50.0,39.0,New Visitor,180.150.140.180
1,100.0,0,1,100.0,0.0,New Visitor,247.net
1,100.0,0,0,0.0,162.9,New Visitor,3.235.240.118:9014
28,100.0,0,8,28.57142857142857,40.982142857142854,New Visitor,36ohk6dgmcd1n-c.c.yom.mail.yahoo.net
39,100.0,0,3,7.6923076923076925,56.0,New Visitor,36ohk6dgmcd1n-c.c.yom.mail.yahoo.net
53,100.0,0,15,28.30188679245283,40.077669902912625,New Visitor,36ohk6dgmcd1n-c.c.yom.mail.yahoo.net
22,100.0,0,8,36.36363636363637,44.632183908045974,New Visitor,36ohk6dgmcd1n-c.c.yom.mail.yahoo.net
16,100.0,0,5,31.25,34.09708737864078,New Visitor,36ohk6dgmcd1n-c.c.yom.mail.yahoo.net
30,100.0,0,10,33.33333333333333,44.39411764705882,New Visitor,36ohk6dgmcd1n-c.c.yom.mail.yahoo.net
45,100.0,0,14,31.11111111111111,49.586666666666666,New Visitor,36ohk6dgmcd1n-c.c.yom.mail.yahoo.net
52,100.0,0,7,13.461538461538462,52.75,New Visitor,36ohk6dgmcd1n-c.c.yom.mail.yahoo.net
17,100.0,0,7,41.17647058823529,55.733333333333334,New Visitor,36ohk6dgmcd1n-c.c.yom.mail.yahoo.net
27,100.0,0,7,25.925925925925924,161.78125,New Visitor,36ohk6dgmcd1n-c.c.yom.mail.yahoo.net
14,100.0,0,6,42.857142857142854,39.27272727272727,New Visitor,36ohk6dgmcd1n-c.c.yom.mail.yahoo.net
11,100.0,0,4,36.36363636363637,51.17857142857143,New Visitor,36ohk6dgmcd1n-c.c.yom.mail.yahoo.net
7,100.0,0,0,0.0,39.54054054054054,New Visitor,36ohk6dgmcd1n-c.c.yom.mail.yahoo.net
6,100.0,0,2,33.33333333333333,96.21428571428571,New Visitor,36ohk6dgmcd1n-c.c.yom.mail.yahoo.net
14,100.0,0,6,42.857142857142854,53.80833333333333,New Visitor,36ohk6dgmcd1n-c.c.yom.mail.yahoo.net
9,100.0,0,3,33.33333333333333,108.23333333333333,New Visitor,36ohk6dgmcd1n-c.c.yom.mail.yahoo.net
22,100.0,0,4,18.181818181818183,62.73513513513514,New Visitor,36ohk6dgmcd1n-c.c.yom.mail.yahoo.net
24,100.0,0,7,29.166666666666668,37.06730769230769,New Visitor,36ohk6dgmcd1n-c.c.yom.mail.yahoo.net
13,100.0,0,6,46.15384615384615,184.75,New Visitor,36ohk6dgmcd1n-c.c.yom.mail.yahoo.net
22,100.0,0,7,31.818181818181817,85.51086956521739,New Visitor,36ohk6dgmcd1n-c.c.yom.mail.yahoo.net
9,100.0,0,2,22.22222222222222,76.65454545454546,New Visitor,36ohk6dgmcd1n-c.c.yom.mail.yahoo.net
10,100.0,0,4,40.0,27.82857142857143,New Visitor,36ohk6dgmcd1n-c.c.yom.mail.yahoo.net
12,100.0,0,5,41.66666666666667,39.417910447761194,New Visitor,36ohk6dgmcd1n-c.c.yom.mail.yahoo.net
116,100.0,0,44,37.93103448275862,57.004464285714285,New Visitor,36ohk6dgmcd1n-c.c.yom.mail.yahoo.net
45,100.0,0,16,35.55555555555556,54.650442477876105,New Visitor,36ohk6dgmcd1n-c.c.yom.mail.yahoo.net
33,100.0,0,12,36.36363636363637,47.21296296296296,New Visitor,36ohk6dgmcd1n-c.c.yom.mail.yahoo.net
9,100.0,0,2,22.22222222222222,75.88888888888889,New Visitor,36ohk6dgmcd1n-c.c.yom.mail.yahoo.net
8,100.0,0,0,0.0,54.89041095890411,New Visitor,36ohk6dgmcd1n-c.c.yom.mail.yahoo.net
10,100.0,0,1,10.0,66.91666666666667,New Visitor,36ohk6dgmcd1n-c.c.yom.mail.yahoo.net
11,100.0,0,2,18.181818181818183,59.50684931506849,New Visitor,36ohk6dgmcd1n-c.c.yom.mail.yahoo.net
41,100.0,0,9,21.951219512195124,42.56431535269709,New Visitor,36ohk6dgmcd1n-c.c.yom.mail.yahoo.net
1,100.0,0,0,0.0,287.8,New Visitor,3cp9lcoq32dpn-c.c.yom.mail.yahoo.com
1,100.0,0,0,0.0,154.33333333333334,New Visitor,3fatchicks.com
1,100.0,0,0,0.0,15.5,New Visitor,99labells.com
1,100.0,0,1,100.0,0.0,New Visitor,99labells.com
1,100.0,0,1,100.0,0.0,New Visitor,99labes.com
4,100.0,0,3,75.0,25.333333333333332,New Visitor,99lables.com
5,100.0,0,2,40.0,182.0909090909091,New Visitor,99lables.com
8,100.0,0,3,37.5,45.0,New Visitor,99lables.com
5,100.0,0,4,80.0,4.0,New Visitor,99lables.com
6,100.0,0,4,66.66666666666666,64.07142857142857,New Visitor,99lables.com
9,100.0,0,4,44.44444444444444,88.77777777777777,New Visitor,99lables.com
1,100.0,0,1,100.0,0.0,New Visitor,99lables.com
2,100.0,0,1,50.0,26.333333333333332,New Visitor,99lables.com
2,100.0,0,2,100.0,0.0,New Visitor,99lables.com
1,100.0,0,1,100.0,0.0,New Visitor,99lables.com
1,100.0,0,0,0.0,149.75,New Visitor,99lables.com
3,100.0,0,1,33.33333333333333,36.07142857142857,New Visitor,99lables.com
4,100.0,0,2,50.0,45.6,New Visitor,99lables.com
2,100.0,0,2,100.0,0.0,New Visitor,99lables.com
1,100.0,0,0,0.0,37.0,New Visitor,99lables.com
2,100.0,0,1,50.0,5.0,New Visitor,99lables.com
1,100.0,0,0,0.0,13.0,New Visitor,aa.mc1202.mail.yahoo.com
1,100.0,0,1,100.0,0.0,New Visitor,aahbra.com
1,100.0,0,1,100.0,0.0,New Visitor,aajtak.intoday.in
3,100.0,0,3,100.0,0.0,New Visitor,aajtube.com
1,100.0,0,1,100.0,0.0,New Visitor,aajtube.com
1,100.0,0,1,100.0,0.0,New Visitor,aajtube.com
1,100.0,0,1,100.0,0.0,New Visitor,abcshopping.com
1,100.0,0,1,100.0,0.0,New Visitor,abhinethri.com
1,100.0,0,1,100.0,0.0,New Visitor,aboutus.org
1,100.0,0,1,100.0,0.0,New Visitor,abudhabicity.olx.ae
1,100.0,0,1,100.0,0.0,New Visitor,academictutorials.com
1,100.0,0,1,100.0,0.0,New Visitor,accesshollywood.com
1,100.0,0,1,100.0,0.0,New Visitor,accessories.about.com
1,100.0,0,0,0.0,0.0,New Visitor,action-footwear.com
7,100.0,0,3,42.857142857142854,116.41176470588235,New Visitor,ad-apac.doubleclick.net
12,100.0,0,8,66.66666666666666,70.66666666666667,New Visitor,ad-apac.doubleclick.net
9,100.0,0,6,66.66666666666666,27.071428571428573,New Visitor,ad-apac.doubleclick.net
10,100.0,0,8,80.0,82.0,New Visitor,ad-apac.doubleclick.net
2,100.0,0,1,50.0,26.4,New Visitor,ad-apac.doubleclick.net
5,100.0,0,3,60.0,32.0,New Visitor,ad-apac.doubleclick.net
8,100.0,0,4,50.0,43.888888888888886,New Visitor,ad-apac.doubleclick.net
2,100.0,0,0,0.0,39.6875,New Visitor,ad-apac.doubleclick.net
5,100.0,0,4,80.0,49.2,New Visitor,ad-apac.doubleclick.net
5,100.0,0,1,20.0,50.2,New Visitor,ad-apac.doubleclick.net
2,100.0,0,2,100.0,0.0,New Visitor,ad-apac.doubleclick.net
1,100.0,0,0,0.0,18.0,New Visitor,ad-apac.doubleclick.net
1,100.0,0,0,0.0,99.4,New Visitor,ad-apac.doubleclick.net
1,100.0,0,1,100.0,0.0,New Visitor,ad-apac.doubleclick.net
3,100.0,0,2,66.66666666666666,29.0,New Visitor,ad-apac.doubleclick.net
3,100.0,0,2,66.66666666666666,28.5,New Visitor,ad-apac.doubleclick.net
2,100.0,0,1,50.0,54.142857142857146,New Visitor,ad-apac.doubleclick.net
14,100.0,0,10,71.42857142857143,80.78048780487805,New Visitor,ad-apac.doubleclick.net
22,100.0,0,12,54.54545454545454,46.336633663366335,New Visitor,ad-apac.doubleclick.net
2,100.0,0,1,50.0,78.5,New Visitor,ad.adtegrity.net
7,100.0,0,6,85.71428571428571,28.333333333333332,New Visitor,ad.axill.com
5,100.0,0,1,20.0,44.63636363636363,New Visitor,ad.axill.com
1,100.0,0,0,0.0,12.74074074074074,New Visitor,ad.axill.com
1,100.0,0,1,100.0,0.0,New Visitor,ad.axill.com
1,100.0,0,1,100.0,0.0,New Visitor,ad.axill.com
3,100.0,0,3,100.0,0.0,New Visitor,ad.axill.com
1,100.0,0,0,0.0,78.88888888888889,New Visitor,ad.axill.com
19,100.0,0,13,68.42105263157895,27.75,New Visitor,ad.bharatstudent.com
17,100.0,0,15,88.23529411764706,48.0,New Visitor,ad.bharatstudent.com
3,100.0,0,3,100.0,0.0,New Visitor,ad.bharatstudent.com
10,100.0,0,9,90.0,0.6666666666666666,New Visitor,ad.bharatstudent.com
9,100.0,0,9,100.0,0.0,New Visitor,ad.bharatstudent.com
14,100.0,0,11,78.57142857142857,102.41666666666667,New Visitor,ad.bharatstudent.com
11,100.0,0,10,90.9090909090909,24.25,New Visitor,ad.bharatstudent.com
8,100.0,0,7,87.5,82.0,New Visitor,ad.bharatstudent.com
4,100.0,0,3,75.0,88.57142857142857,New Visitor,ad.bharatstudent.com
2,100.0,0,2,100.0,0.0,New Visitor,ad.bharatstudent.com
1,100.0,0,1,100.0,0.0,New Visitor,ad.bharatstudent.com
3,100.0,0,2,66.66666666666666,36.5,New Visitor,ad.bharatstudent.com
5,100.0,0,5,100.0,0.0,New Visitor,ad.bharatstudent.com
1,100.0,0,1,100.0,0.0,New Visitor,ad.bharatstudent.com
3,100.0,0,3,100.0,0.0,New Visitor,ad.bharatstudent.com
1,100.0,0,1,100.0,0.0,New Visitor,ad.ca.doubleclick.net
3,100.0,0,2,66.66666666666666,17.444444444444443,New Visitor,ad.doubleclick.net
1,100.0,0,1,100.0,0.0,New Visitor,ad.doubleclick.net
3,100.0,0,2,66.66666666666666,39.25,New Visitor,ad.doubleclick.net
5,100.0,0,1,20.0,60.645833333333336,New Visitor,ad.doubleclick.net
2,100.0,0,2,100.0,0.0,New Visitor,ad.doubleclick.net
3,100.0,0,0,0.0,25.625,New Visitor,ad.doubleclick.net
3,100.0,0,0,0.0,70.44444444444444,New Visitor,ad.doubleclick.net
15,100.0,0,11,73.33333333333333,105.53846153846153,New Visitor,ad.doubleclick.net
7,100.0,0,3,42.857142857142854,81.625,New Visitor,ad.doubleclick.net
12,100.0,0,7,58.333333333333336,35.794520547945204,New Visitor,ad.doubleclick.net
11,100.0,0,9,81.81818181818183,41.75,New Visitor,ad.doubleclick.net
12,100.0,0,6,50.0,58.0,New Visitor,ad.doubleclick.net
16,100.0,0,9,56.25,65.06060606060606,New Visitor,ad.doubleclick.net
22,100.0,0,15,68.18181818181817,37.77272727272727,New Visitor,ad.doubleclick.net
27,100.0,0,18,66.66666666666666,56.53225806451613,New Visitor,ad.doubleclick.net
21,100.0,0,11,52.38095238095239,75.79439252336448,New Visitor,ad.doubleclick.net
13,100.0,0,10,76.92307692307693,31.214285714285715,New Visitor,ad.doubleclick.net
7,100.0,0,5,71.42857142857143,26.416666666666668,New Visitor,ad.doubleclick.net
5,100.0,0,2,40.0,54.0,New Visitor,ad.doubleclick.net
14,100.0,0,11,78.57142857142857,46.7,New Visitor,ad.doubleclick.net
11,100.0,0,10,90.9090909090909,39.38461538461539,New Visitor,ad.doubleclick.net
7,100.0,0,5,71.42857142857143,42.851851851851855,New Visitor,ad.doubleclick.net
2,100.0,0,1,50.0,76.0,New Visitor,ad.doubleclick.net
17,100.0,0,13,76.47058823529412,77.93103448275862,New Visitor,ad.doubleclick.net
18,100.0,0,13,72.22222222222221,34.15094339622642,New Visitor,ad.doubleclick.net
7,100.0,0,5,71.42857142857143,589.0,New Visitor,ad.doubleclick.net
2,100.0,0,0,0.0,37.88235294117647,New Visitor,ad.es.doubleclick.net
1,100.0,0,1,100.0,0.0,New Visitor,ad.es.doubleclick.net
11,100.0,0,7,63.63636363636363,43.411764705882355,New Visitor,ad.globe7.com
158,100.0,0,123,77.84810126582279,56.875,New Visitor,ad.globe7.com
348,100.0,0,296,85.0574712643678,104.24652777777777,New Visitor,ad.globe7.com
100,100.0,0,92,92.0,94.08695652173913,New Visitor,ad.globe7.com
63,100.0,0,53,84.12698412698413,68.80555555555556,New Visitor,ad.globe7.com
72,100.0,0,66,91.66666666666666,50.224137931034484,New Visitor,ad.globe7.com
102,100.0,0,81,79.41176470588235,34.98876404494382,New Visitor,ad.globe7.com
74,100.0,0,59,79.72972972972973,59.407407407407405,New Visitor,ad.globe7.com
78,100.0,0,68,87.17948717948718,65.78260869565217,New Visitor,ad.globe7.com
64,100.0,0,59,92.1875,56.75,New Visitor,ad.globe7.com
50,100.0,0,44,88.0,183.41666666666666,New Visitor,ad.globe7.com
20,100.0,0,16,80.0,54.333333333333336,New Visitor,ad.globe7.com
16,100.0,0,13,81.25,153.5,New Visitor,ad.globe7.com
23,100.0,0,18,78.26086956521739,39.05263157894737,New Visitor,ad.globe7.com
18,100.0,0,17,94.44444444444444,167.0,New Visitor,ad.globe7.com
10,100.0,0,9,90.0,21.0,New Visitor,ad.globe7.com
3,100.0,0,3,100.0,0.0,New Visitor,ad.globe7.com
18,100.0,0,18,100.0,0.0,New Visitor,ad.harrenmedianetwork.com
1,100.0,0,1,100.0,0.0,New Visitor,ad.scanmedios.com
1,100.0,0,0,0.0,326.0,New Visitor,ad.yieldmanager.com
1,100.0,0,0,0.0,116.2,New Visitor,ad.yieldmanager.com
8,100.0,0,4,50.0,99.46666666666667,New Visitor,ad.yieldmanager.com
335,100.0,0,247,73.73134328358208,53.61867704280156,New Visitor,ad.yieldmanager.com
919,100.0,0,624,67.89989118607181,59.068689422671724,New Visitor,ad.yieldmanager.com
918,100.0,0,651,70.91503267973856,61.96396396396396,New Visitor,ad.yieldmanager.com
522,100.0,0,376,72.03065134099617,57.44840386043059,New Visitor,ad.yieldmanager.com
325,100.0,0,219,67.38461538461539,64.14430379746835,New Visitor,ad.yieldmanager.com
444,100.0,0,314,70.72072072072072,69.06855575868373,New Visitor,ad.yieldmanager.com
716,100.0,0,567,79.18994413407822,66.02013942680092,New Visitor,ad.yieldmanager.com
653,100.0,0,514,78.71362940275651,76.30116648992576,New Visitor,ad.yieldmanager.com
595,100.0,0,489,82.18487394957982,70.05728518057285,New Visitor,ad.yieldmanager.com
581,100.0,0,458,78.82960413080895,83.88100686498856,New Visitor,ad.yieldmanager.com
240,100.0,0,182,75.83333333333333,71.91063829787234,New Visitor,ad.yieldmanager.com
256,100.0,0,169,66.015625,69.32994186046511,New Visitor,ad.yieldmanager.com
484,100.0,0,325,67.14876033057851,63.544910179640716,New Visitor,ad.yieldmanager.com
509,100.0,0,353,69.3516699410609,59.97440423654016,New Visitor,ad.yieldmanager.com
443,100.0,0,325,73.36343115124153,55.83444976076555,New Visitor,ad.yieldmanager.com
358,100.0,0,255,71.22905027932961,60.42991913746631,New Visitor,ad.yieldmanager.com
65,100.0,0,44,67.6923076923077,44.17560975609756,New Visitor,ad.yieldmanager.com
16,100.0,0,12,75.0,133.07142857142858,New Visitor,ad.yieldmanager.com
4,100.0,0,3,75.0,25.333333333333332,New Visitor,ad.yieldmanager.com
5,100.0,0,3,60.0,29.4,New Visitor,ad31.nettravel.com
8,100.0,0,1,12.5,28.807692307692307,New Visitor,ad53.nettravel.com
27,100.0,0,16,59.25925925925925,33.12903225806452,New Visitor,ad53.nettravel.com
8,100.0,0,3,37.5,30.7,New Visitor,ad53.nettravel.com
6,100.0,0,4,66.66666666666666,46.0,New Visitor,ad53.nettravel.com
146,100.0,0,80,54.794520547945204,53.81944444444444,New Visitor,ad53.nettravel.com
70,100.0,0,36,51.42857142857142,50.42465753424658,New Visitor,ad53.nettravel.com
1,100.0,0,0,0.0,5.0,New Visitor,ad57.nettravel.com
1,100.0,0,0,0.0,28.0,New Visitor,ad82.nettravel.com
1,100.0,0,1,100.0,0.0,New Visitor,ad89.nettravel.com
1,100.0,0,1,100.0,0.0,New Visitor,adidasclassic.com
1,100.0,0,1,100.0,0.0,New Visitor,adodas.com
1,100.0,0,1,100.0,0.0,New Visitor,adoos.in
1,100.0,0,1,100.0,0.0,New Visitor,ads.atomex.net
20,100.0,0,15,75.0,92.93333333333334,New Visitor,ads.atomex.net
75,100.0,0,46,61.33333333333333,67.53378378378379,New Visitor,ads.atomex.net
71,100.0,0,53,74.64788732394366,46.57471264367816,New Visitor,ads.atomex.net
87,100.0,0,54,62.06896551724138,61.950980392156865,New Visitor,ads.atomex.net
112,100.0,0,77,68.75,93.1067415730337,New Visitor,ads.atomex.net
50,100.0,0,35,70.0,64.80714285714286,New Visitor,ads.atomex.net
1,100.0,0,1,100.0,0.0,New Visitor,ads.cricbuzz.com
1,100.0,0,1,100.0,0.0,New Visitor,ads.indiatimes.com
1,100.0,0,1,100.0,0.0,New Visitor,ads.indiatimes.com
1,100.0,0,1,100.0,0.0,New Visitor,ads.interpals.net
1,100.0,0,1,100.0,0.0,New Visitor,ads.interpals.net
1,100.0,0,0,0.0,165.44444444444446,New Visitor,ads.interpals.net
1,100.0,0,0,0.0,51.9,New Visitor,ads.interpals.net
1,100.0,0,1,100.0,0.0,New Visitor,ads.sify.com
1,100.0,0,0,0.0,112.5,New Visitor,ads.taaza.com
1,100.0,0,1,100.0,0.0,New Visitor,ads.taaza.com
1,100.0,0,1,100.0,0.0,New Visitor,ads.taaza.com
1,100.0,0,1,100.0,0.0,New Visitor,ads.taaza.com
1,100.0,0,0,0.0,65.33333333333333,New Visitor,adserver.adtechus.com
1,100.0,0,1,100.0,0.0,New Visitor,adservices.picadmedia.com
2,100.0,0,1,50.0,147.14285714285714,New Visitor,adservices02.picadmedia.com
1,100.0,0,0,0.0,6.0,New Visitor,adservices02.picadmedia.com
1,100.0,0,1,100.0,0.0,New Visitor,adservices02.picadmedia.com
3,100.0,0,2,66.66666666666666,29.75,New Visitor,adservices03.picadmedia.com
4,100.0,0,4,100.0,0.0,New Visitor,adservices03.picadmedia.com
10,100.0,0,10,100.0,0.0,New Visitor,adservices03.picadmedia.com
10,100.0,0,9,90.0,19.0,New Visitor,adservices03.picadmedia.com
6,100.0,0,2,33.33333333333333,74.61538461538461,New Visitor,adservices03.picadmedia.com
2,100.0,0,2,100.0,0.0,New Visitor,adservices03.picadmedia.com
1,100.0,0,0,0.0,28.25,New Visitor,adsoftheworld.com
1,100.0,0,1,100.0,0.0,New Visitor,adsoftheworld.com
1,100.0,0,0,0.0,102.5,New Visitor,adsoftheworld.com
1,100.0,0,0,0.0,25.944444444444443,New Visitor,adsoftheworld.com
1,100.0,0,0,0.0,42.7,New Visitor,adstil.indiatimes.com
1,100.0,0,1,100.0,0.0,New Visitor,adstil.indiatimes.com
2,100.0,0,1,50.0,622.0,New Visitor,adstil.indiatimes.com
4,100.0,0,3,75.0,50.333333333333336,New Visitor,adstil.indiatimes.com
1,100.0,0,0,0.0,66.33333333333333,New Visitor,adstil.indiatimes.com
4,100.0,0,2,50.0,64.5,New Visitor,adstil.indiatimes.com
7,100.0,0,4,57.14285714285714,79.22727272727273,New Visitor,adstil.indiatimes.com
6,100.0,0,3,50.0,178.04761904761904,New Visitor,adstil.indiatimes.com
9,100.0,0,6,66.66666666666666,36.541666666666664,New Visitor,adstil.indiatimes.com
7,100.0,0,4,57.14285714285714,84.44444444444444,New Visitor,adstil.indiatimes.com
2,100.0,0,1,50.0,39.27777777777778,New Visitor,adstil.indiatimes.com
4,100.0,0,3,75.0,46.833333333333336,New Visitor,adstil.indiatimes.com
1,100.0,0,1,100.0,0.0,New Visitor,adstil.indiatimes.com
2,100.0,0,1,50.0,28.5,New Visitor,adstil.indiatimes.com
2,100.0,0,2,100.0,0.0,New Visitor,adstil.indiatimes.com
1,100.0,0,1,100.0,0.0,New Visitor,adstil.indiatimes.com
1,100.0,0,0,0.0,108.5,New Visitor,adstil.indiatimes.com
2,100.0,0,0,0.0,113.33333333333333,New Visitor,adv.dotcomgenerations.com
1,100.0,0,0,0.0,24.0,New Visitor,agevs.com
1,100.0,0,1,100.0,0.0,New Visitor,agra.quikr.com
1,100.0,0,0,0.0,44.241379310344826,New Visitor,ahmedabad.burrp.com
1,100.0,0,1,100.0,0.0,New Visitor,ahmedabad.burrp.com
1,100.0,0,1,100.0,0.0,New Visitor,ahmedabad.clickindia.com
1,100.0,0,1,100.0,0.0,New Visitor,ahmedabad.olx.in
1,100.0,0,1,100.0,0.0,New Visitor,ahmedabad.olx.in
1,100.0,0,1,100.0,0.0,New Visitor,ahmedabad.olx.in
1,100.0,0,1,100.0,0.0,New Visitor,ahmedabad.olx.in
2,100.0,0,1,50.0,56.0,New Visitor,ahmedabad.olx.in
1,100.0,0,1,100.0,0.0,New Visitor,ahmedabad.olx.in
1,100.0,0,1,100.0,0.0,New Visitor,ahmedabad.olx.in
1,100.0,0,0,0.0,144.36363636363637,New Visitor,ahmedabad.quikr.com
1,100.0,0,1,100.0,0.0,New Visitor,ahmedabad.quikr.com
2,100.0,0,0,0.0,67.875,New Visitor,ahmedabad.quikr.com
1,100.0,0,0,0.0,15.5,New Visitor,ahmedabad.quikr.com
1,100.0,0,0,0.0,12.0,New Visitor,ahmedabad.quikr.com
1,100.0,0,0,0.0,30.0,New Visitor,ajmer.olx.in
1,100.0,0,1,100.0,0.0,New Visitor,albavid.com
1,100.0,0,1,100.0,0.0,New Visitor,aldo.co.uk
1,100.0,0,1,100.0,0.0,New Visitor,alexa.com
1,100.0,0,1,100.0,0.0,New Visitor,alexa.com
1,100.0,0,0,0.0,8.25,New Visitor,alexa.com
1,100.0,0,1,100.0,0.0,New Visitor,alexa.com
1,100.0,0,1,100.0,0.0,New Visitor,alexa.com
1,100.0,0,1,100.0,0.0,New Visitor,alexa.com
2,100.0,0,2,100.0,0.0,New Visitor,alexa.com
1,100.0,0,1,100.0,0.0,New Visitor,alexa.com
1,100.0,0,0,0.0,56.0,New Visitor,alexa.com
1,100.0,0,0,0.0,25.0,New Visitor,alexa.com
2,100.0,0,2,100.0,0.0,New Visitor,alexa.com
1,100.0,0,1,100.0,0.0,New Visitor,alexa.com
1,100.0,0,1,100.0,0.0,New Visitor,alexa.com
1,100.0,0,1,100.0,0.0,New Visitor,alexa.com
1,100.0,0,1,100.0,0.0,New Visitor,all-free-download.com
1,100.0,0,0,0.0,184.0,New Visitor,all-free-download.com
1,100.0,0,1,100.0,0.0,New Visitor,allahabad.olx.in
1,100.0,0,0,0.0,45.75,New Visitor,allfashions.info
1,100.0,0,0,0.0,38.166666666666664,New Visitor,allfreesewing.com
1,100.0,0,0,0.0,9.0,New Visitor,allfreesewing.com
1,100.0,0,1,100.0,0.0,New Visitor,allrecipes.com
1,100.0,0,1,100.0,0.0,New Visitor,allrecipes.com
1,100.0,0,0,0.0,22.666666666666668,New Visitor,allrecipes.com
1,100.0,0,1,100.0,0.0,New Visitor,allsarees.com
1,100.0,0,1,100.0,0.0,New Visitor,allstarshoes.com
2,100.0,0,1,50.0,85.14285714285714,New Visitor,allwomenstalk.com
1,100.0,0,1,100.0,0.0,New Visitor,allwomenstalk.com
1,100.0,0,1,100.0,0.0,New Visitor,alngullie.hubpages.com
1,100.0,0,0,0.0,123.0,New Visitor,alpha.discountpandit.com
1,100.0,0,0,0.0,8.666666666666666,New Visitor,altoloop.com
1,100.0,0,1,100.0,0.0,New Visitor,altoloop.com
1,100.0,0,0,0.0,23.25,New Visitor,altoloop.com
1,100.0,0,1,100.0,0.0,New Visitor,always21.com
2,100.0,0,2,100.0,0.0,New Visitor,amazon.com
4,100.0,0,3,75.0,383.0,New Visitor,amazon.com
6,100.0,0,4,66.66666666666666,34.53333333333333,New Visitor,amazon.com
2,100.0,0,2,100.0,0.0,New Visitor,amazon.com
1,100.0,0,0,0.0,853.0,New Visitor,amazon.com
2,100.0,0,1,50.0,172.0,New Visitor,amazon.com
2,100.0,0,1,50.0,458.0,New Visitor,amazon.com
1,100.0,0,1,100.0,0.0,New Visitor,amazon.com
1,100.0,0,1,100.0,0.0,New Visitor,amazon.com
1,100.0,0,1,100.0,0.0,New Visitor,amazon.com
1,100.0,0,1,100.0,0.0,New Visitor,amazon.com
1,100.0,0,0,0.0,108.5,New Visitor,amazon.com
1,100.0,0,1,100.0,0.0,New Visitor,amazon.com
1,100.0,0,0,0.0,42.2,New Visitor,amazon.com
3,100.0,0,3,100.0,0.0,New Visitor,amazon.com
1,100.0,0,1,100.0,0.0,New Visitor,amritsar.quikr.com
1,100.0,0,0,0.0,1.0,New Visitor,amulyam.in
155,100.0,0,80,51.61290322580645,80.94970414201184,New Visitor,amulyam.in
64,100.0,0,31,48.4375,126.61,New Visitor,amulyam.in
209,100.0,0,155,74.16267942583733,217.04,New Visitor,amulyam.in
561,100.0,0,349,62.21033868092691,92.07607607607608,New Visitor,amulyam.in
285,100.0,0,201,70.52631578947368,112.94571428571429,New Visitor,amulyam.in
191,100.0,0,121,63.35078534031413,184.16822429906543,New Visitor,amulyam.in
136,100.0,0,80,58.82352941176471,149.10625,New Visitor,amulyam.in
95,100.0,0,59,62.10526315789474,188.14117647058825,New Visitor,amulyam.in
130,100.0,0,91,70.0,194.30275229357798,New Visitor,amulyam.in
116,100.0,0,73,62.93103448275862,256.21153846153845,New Visitor,amulyam.in
121,100.0,0,74,61.15702479338842,123.71186440677967,New Visitor,amulyam.in
263,100.0,0,150,57.03422053231939,74.05890410958904,New Visitor,amulyam.in
157,100.0,0,86,54.77707006369427,79.21428571428571,New Visitor,amulyam.in
101,100.0,0,63,62.37623762376238,138.3483870967742,New Visitor,amulyam.in
74,100.0,0,50,67.56756756756756,209.92957746478874,New Visitor,amulyam.in
103,100.0,0,64,62.13592233009708,122.30708661417323,New Visitor,amulyam.in
24,100.0,0,17,70.83333333333334,109.27027027027027,New Visitor,amulyam.in
1,100.0,0,1,100.0,0.0,New Visitor,andhrabhoomi.net
1,100.0,0,0,0.0,49.5,New Visitor,andhrabhoomi.net
2,100.0,0,2,100.0,0.0,New Visitor,andhrabhoomi.net
1,100.0,0,0,0.0,70.0,New Visitor,andhramovies.com
1,100.0,0,1,100.0,0.0,New Visitor,androidforums.com
1,100.0,0,1,100.0,0.0,New Visitor,angelsofindian.com
1,100.0,0,0,0.0,45.0,New Visitor,animalcapshunz.icanhascheezburger.com
1,100.0,0,0,0.0,38.411764705882355,New Visitor,answers.com
1,100.0,0,0,0.0,30.75,New Visitor,antygame.com
1,100.0,0,1,100.0,0.0,New Visitor,antygame.com
1,100.0,1,1,100.0,0.0,New Visitor,aol
1,100.0,1,1,100.0,0.0,New Visitor,aol
1,100.0,1,1,100.0,0.0,New Visitor,aol
1,100.0,0,0,0.0,36.285714285714285,New Visitor,aol.com
37,100.0,0,32,86.48648648648648,18.2,New Visitor,api.yieldmanager.com
67,100.0,0,59,88.05970149253731,15.75,New Visitor,api.yieldmanager.com
22,100.0,0,17,77.27272727272727,8.4,New Visitor,api.yieldmanager.com
39,100.0,0,32,82.05128205128204,7.0,New Visitor,api.yieldmanager.com
40,100.0,0,32,80.0,8.375,New Visitor,api.yieldmanager.com
2,100.0,0,0,0.0,25.70909090909091,New Visitor,apni.tv
10,100.0,0,4,40.0,47.17391304347826,New Visitor,apps.facebook.com
17,100.0,0,12,70.58823529411765,74.45161290322581,New Visitor,apps.facebook.com
85,100.0,0,52,61.1764705882353,109.26071428571429,New Visitor,apps.facebook.com
168,100.0,0,105,62.5,77.40375586854461,New Visitor,apps.facebook.com
133,100.0,0,68,51.127819548872175,71.95033860045147,New Visitor,apps.facebook.com
114,100.0,0,73,64.03508771929825,79.4390243902439,New Visitor,apps.facebook.com
104,100.0,0,64,61.53846153846154,78.9172932330827,New Visitor,apps.facebook.com
97,100.0,0,62,63.91752577319587,67.18960244648318,New Visitor,apps.facebook.com
101,100.0,0,64,63.366336633663366,68.92888888888889,New Visitor,apps.facebook.com
25,100.0,0,17,68.0,76.0,New Visitor,apps.facebook.com
17,100.0,0,10,58.82352941176471,99.72916666666667,New Visitor,apps.facebook.com
25,100.0,0,17,68.0,70.75471698113208,New Visitor,apps.facebook.com
11,100.0,0,7,63.63636363636363,58.935483870967744,New Visitor,apps.facebook.com
5,100.0,0,4,80.0,42.81818181818182,New Visitor,apps.facebook.com
7,100.0,0,5,71.42857142857143,78.07142857142857,New Visitor,apps.facebook.com
1,100.0,0,0,0.0,181.1818181818182,New Visitor,apr.lijit.com
1,100.0,0,1,100.0,0.0,New Visitor,apunkabollywood.net
1,100.0,0,1,100.0,0.0,New Visitor,apunkabollywood.net
6,100.0,0,4,66.66666666666666,37.666666666666664,New Visitor,apunkabollywood.net
1,100.0,0,1,100.0,0.0,New Visitor,apunkabollywood.net
1,100.0,0,1,100.0,0.0,New Visitor,apunkachoice.com
1,100.0,0,1,100.0,0.0,New Visitor,apunkachoice.com
1,100.0,0,0,0.0,422.3333333333333,New Visitor,apunkachoice.com
1,100.0,0,0,0.0,0.0,New Visitor,archive.suite101.com
1,100.0,0,0,0.0,34.0,New Visitor,ardike.com
31,100.0,0,21,67.74193548387096,54.705882352941174,New Visitor,arg.atomex.net
52,100.0,0,38,73.07692307692307,50.22274881516588,New Visitor,arg.atomex.net
118,100.0,0,85,72.03389830508475,64.73046875,New Visitor,arg.atomex.net
93,100.0,0,62,66.66666666666666,73.50719424460432,New Visitor,arg.atomex.net
130,100.0,0,88,67.6923076923077,50.35562310030395,New Visitor,arg.atomex.net
98,100.0,0,65,66.3265306122449,84.41145833333333,New Visitor,arg.atomex.net
78,100.0,0,47,60.256410256410255,53.53711790393013,New Visitor,arg.atomex.net
110,100.0,0,76,69.0909090909091,61.00456621004566,New Visitor,arg.atomex.net
101,100.0,0,64,63.366336633663366,49.30980392156863,New Visitor,arg.atomex.net
116,100.0,0,77,66.37931034482759,61.784246575342465,New Visitor,arg.atomex.net
314,100.0,0,235,74.84076433121018,52.3568,New Visitor,arg.atomex.net
42,100.0,0,28,68.29268292682927,69.68376068376068,New Visitor,arg.atomex.net
36,100.0,0,27,75.0,104.3529411764706,New Visitor,arg.atomex.net
11,100.0,0,9,81.81818181818183,122.36363636363636,New Visitor,arg.atomex.net
1,100.0,0,1,100.0,0.0,New Visitor,ariatboots.org
1,100.0,0,0,0.0,16.0,New Visitor,armgamer.com
1,100.0,0,1,100.0,0.0,New Visitor,art60plus.com
1,100.0,0,1,100.0,0.0,New Visitor,art60plus.com
1,100.0,0,1,100.0,0.0,New Visitor,articles.economictimes.indiatimes.com
1,100.0,0,0,0.0,73.5,New Visitor,articles.economictimes.indiatimes.com
1,100.0,0,0,0.0,113.66666666666667,New Visitor,articles.economictimes.indiatimes.com
1,100.0,0,1,100.0,0.0,New Visitor,articles.economictimes.indiatimes.com
1,100.0,0,1,100.0,0.0,New Visitor,articles.latimes.com
1,100.0,0,1,100.0,0.0,New Visitor,articles.philly.com
1,100.0,0,1,100.0,0.0,New Visitor,articles.timesofindia.indiatimes.com
1,100.0,0,1,100.0,0.0,New Visitor,articles.timesofindia.indiatimes.com
6,100.0,0,3,50.0,17.0,New Visitor,articles.timesofindia.indiatimes.com
1,100.0,0,1,100.0,0.0,New Visitor,articles.timesofindia.indiatimes.com
4,100.0,0,2,50.0,158.41176470588235,New Visitor,articles.timesofindia.indiatimes.com
4,100.0,0,2,50.0,0.0,New Visitor,articles.timesofindia.indiatimes.com
1,100.0,0,1,100.0,0.0,New Visitor,articles.timesofindia.indiatimes.com
1,100.0,0,0,0.0,21.55,New Visitor,articles.timesofindia.indiatimes.com
3,100.0,0,2,66.66666666666666,13.0,New Visitor,articles.timesofindia.indiatimes.com
3,100.0,0,2,66.66666666666666,43.57142857142857,New Visitor,articles.timesofindia.indiatimes.com
5,100.0,0,2,40.0,40.4,New Visitor,articles.timesofindia.indiatimes.com
2,100.0,0,2,100.0,0.0,New Visitor,articles.timesofindia.indiatimes.com
1,100.0,0,0,0.0,126.0,New Visitor,articles.timesofindia.indiatimes.com
2,100.0,0,1,50.0,166.66666666666666,New Visitor,articles.timesofindia.indiatimes.com
1,100.0,0,1,100.0,0.0,New Visitor,articles.timesofindia.indiatimes.com
1,100.0,0,1,100.0,0.0,New Visitor,articlesbase.com
1,100.0,0,0,0.0,33.75,New Visitor,articlesbase.com
1,100.0,0,1,100.0,0.0,New Visitor,articlesbase.com
2,100.0,0,1,50.0,13.0,New Visitor,articlesbase.com
1,100.0,0,1,100.0,0.0,New Visitor,articlesbase.com
1,100.0,0,1,100.0,0.0,New Visitor,articlesbase.com
1,100.0,0,0,0.0,198.2,New Visitor,articlesbase.com
1,100.0,0,1,100.0,0.0,New Visitor,articlesbase.com
1,100.0,0,0,0.0,421.0,New Visitor,articlesbase.com
1,100.0,0,1,100.0,0.0,New Visitor,articlesbase.com
1,100.0,0,0,0.0,97.0,New Visitor,articlesnatch.com
1,100.0,0,0,0.0,585.3333333333334,New Visitor,articlesnatch.com
1,100.0,0,0,0.0,23.0,New Visitor,articlesnatch.com
1,100.0,0,1,100.0,0.0,New Visitor,articlesnatch.com
1,100.0,0,0,0.0,57.0,New Visitor,articlesnatch.com
1,100.0,0,1,100.0,0.0,New Visitor,articlesnatch.com
1,100.0,0,1,100.0,0.0,New Visitor,asianage.com
1,100.0,0,0,0.0,27.857142857142858,New Visitor,asianage.com
2,100.0,0,2,100.0,0.0,New Visitor,asianage.com
3,100.0,0,3,100.0,0.0,New Visitor,asianage.com
1,100.0,0,1,100.0,0.0,New Visitor,asianfanfics.com
1,100.0,0,1,100.0,0.0,New Visitor,asianfanfics.com
2,100.0,2,1,50.0,80.44444444444444,New Visitor,ask
7,100.0,7,5,71.42857142857143,294.6666666666667,New Visitor,ask
7,100.0,7,5,71.42857142857143,47.333333333333336,New Visitor,ask
3,100.0,3,2,66.66666666666666,286.5,New Visitor,ask
4,100.0,4,2,50.0,32.25,New Visitor,ask
6,100.0,6,4,66.66666666666666,49.0,New Visitor,ask
318,100.0,318,252,79.24528301886792,64.6923076923077,New Visitor,ask
2,100.0,2,2,100.0,0.0,New Visitor,ask
398,100.0,398,333,83.66834170854271,48.171270718232044,New Visitor,ask
6,100.0,6,4,66.66666666666666,91.83333333333333,New Visitor,ask
162,100.0,162,133,82.09876543209876,57.329268292682926,New Visitor,ask
90,100.0,90,69,76.66666666666667,34.3448275862069,New Visitor,ask
40,100.0,40,28,70.0,59.328125,New Visitor,ask
73,100.0,73,56,76.71232876712328,76.24,New Visitor,ask
41,100.0,41,29,70.73170731707317,135.10526315789474,New Visitor,ask
33,100.0,33,23,69.6969696969697,40.39344262295082,New Visitor,ask
25,100.0,25,20,80.0,47.64705882352941,New Visitor,ask
35,100.0,35,23,65.71428571428571,40.82795698924731,New Visitor,ask
30,100.0,30,19,63.33333333333333,44.142857142857146,New Visitor,ask
23,100.0,23,15,65.21739130434783,99.21052631578948,New Visitor,ask
35,100.0,35,25,71.42857142857143,56.39473684210526,New Visitor,ask
17,100.0,17,16,94.11764705882352,17.833333333333332,New Visitor,ask
42,100.0,42,32,76.19047619047619,51.51315789473684,New Visitor,ask
25,100.0,25,19,76.0,135.76470588235293,New Visitor,ask
29,100.0,29,25,86.20689655172413,35.08571428571429,New Visitor,ask
27,100.0,27,19,70.37037037037037,67.64285714285714,New Visitor,ask
35,100.0,35,25,71.42857142857143,50.8,New Visitor,ask
52,100.0,52,35,67.3076923076923,43.27272727272727,New Visitor,ask
28,100.0,28,20,71.42857142857143,128.28571428571428,New Visitor,ask
1,100.0,0,1,100.0,0.0,New Visitor,ask.metafilter.com
1,100.0,0,1,100.0,0.0,New Visitor,ask.reference.com
1,100.0,0,1,100.0,0.0,New Visitor,ask.reference.com
1,100.0,0,0,0.0,191.5,New Visitor,assby.com
1,100.0,0,0,0.0,86.88888888888889,New Visitor,astrology.com
1,100.0,0,0,0.0,44.19230769230769,New Visitor,astrology.com
1,100.0,0,1,100.0,0.0,New Visitor,astrologycom.com
1,100.0,0,1,100.0,0.0,New Visitor,astrologycom.com
1,100.0,0,1,100.0,0.0,New Visitor,atomicgamer.com
1,100.0,0,0,0.0,74.5,New Visitor,au.mc1124.mail.yahoo.com
1,100.0,0,1,100.0,0.0,New Visitor,au.mc1404.mail.yahoo.com
1,100.0,0,0,0.0,26.2,New Visitor,au.mc1404.mail.yahoo.com
1,100.0,0,0,0.0,18.5,New Visitor,au.mc1623.mail.yahoo.com
1,100.0,0,1,100.0,0.0,New Visitor,au.mc1623.mail.yahoo.com
1,100.0,0,0,0.0,149.41666666666666,New Visitor,au.mg1.mail.yahoo.com
1,100.0,0,0,0.0,33.75,New Visitor,au.mg4.mail.yahoo.com
1,100.0,0,0,0.0,56.4,New Visitor,au.mg5.mail.yahoo.com
1,100.0,0,1,100.0,0.0,New Visitor,aurangabad.locanto.in
1,100.0,0,1,100.0,0.0,New Visitor,authorstream.com
1,100.0,0,1,100.0,0.0,New Visitor,autoblog.com
3,100.0,0,0,0.0,34.666666666666664,New Visitor,autos.aol.com
1,100.0,0,1,100.0,0.0,New Visitor,autos.aol.com
1,100.0,0,1,100.0,0.0,New Visitor,autos.maxabout.com
1,100.0,0,0,0.0,126.0,New Visitor,autos.maxabout.com
1,100.0,0,1,100.0,0.0,New Visitor,ayushveda.com
1,100.0,0,1,100.0,0.0,New Visitor,babiesworld.com
1,100.0,0,0,0.0,32.666666666666664,New Visitor,babyhold.com
5,100.0,5,3,60.0,59.4,New Visitor,babylon
3,100.0,3,0,0.0,28.333333333333332,New Visitor,babylon
2,100.0,2,2,100.0,0.0,New Visitor,babylon
4,100.0,4,3,75.0,111.75,New Visitor,babylon
4,100.0,4,3,75.0,42.0,New Visitor,babylon
1,100.0,1,1,100.0,0.0,New Visitor,babylon
102,100.0,102,77,75.49019607843137,44.382716049382715,New Visitor,babylon
3,100.0,3,2,66.66666666666666,34.75,New Visitor,babylon
41,100.0,41,31,75.60975609756098,41.10344827586207,New Visitor,babylon
12,100.0,12,9,75.0,26.09090909090909,New Visitor,babylon
21,100.0,21,18,85.71428571428571,23.833333333333332,New Visitor,babylon
3,100.0,3,2,66.66666666666666,6.0,New Visitor,babylon
9,100.0,9,9,100.0,0.0,New Visitor,babylon
13,100.0,13,10,76.92307692307693,70.14285714285714,New Visitor,babylon
8,100.0,8,6,75.0,25.0,New Visitor,babylon
2,100.0,2,1,50.0,4.0,New Visitor,babylon
9,100.0,9,8,88.88888888888889,71.0,New Visitor,babylon
7,100.0,7,7,100.0,0.0,New Visitor,babylon
9,100.0,9,6,66.66666666666666,36.84615384615385,New Visitor,babylon
7,100.0,7,5,71.42857142857143,33.111111111111114,New Visitor,babylon
8,100.0,8,6,75.0,61.07142857142857,New Visitor,babylon
8,100.0,8,6,75.0,43.2,New Visitor,babylon
15,100.0,15,12,80.0,61.63636363636363,New Visitor,babylon
12,100.0,12,10,83.33333333333334,19.952380952380953,New Visitor,babylon
7,100.0,7,3,42.857142857142854,147.88888888888889,New Visitor,babylon
8,100.0,8,7,87.5,18.0,New Visitor,babylon
7,100.0,7,6,85.71428571428571,102.0,New Visitor,babylon
13,100.0,13,12,92.3076923076923,16.666666666666668,New Visitor,babylon
1,100.0,0,1,100.0,0.0,New Visitor,bagcard.com
1,100.0,0,1,100.0,0.0,New Visitor,bagcart.com
1,100.0,0,1,100.0,0.0,New Visitor,bagcart.com
1,100.0,0,1,100.0,0.0,New Visitor,baggit.net
1,100.0,0,0,0.0,39.1,New Visitor,baggitbags.com
1,100.0,0,0,0.0,224.0,New Visitor,bagitttoday.com
1,100.0,0,1,100.0,0.0,New Visitor,bagitttoday.com
1,100.0,0,1,100.0,0.0,New Visitor,bagitup.com
2,100.0,0,2,100.0,0.0,New Visitor,bagscart.com
1,100.0,0,1,100.0,0.0,New Visitor,bagscart.com
1,100.0,0,1,100.0,0.0,New Visitor,bagscart.com
1,100.0,0,0,0.0,29.916666666666668,New Visitor,bagscart.com
1,100.0,0,0,0.0,144.14285714285714,New Visitor,bagscart.com
1,100.0,0,1,100.0,0.0,New Visitor,bagscart.com
1,100.0,0,0,0.0,140.0,New Visitor,bagscart.com
2,100.0,0,0,0.0,38.285714285714285,New Visitor,bagscart.com
1,100.0,0,1,100.0,0.0,New Visitor,bagscart.com
1,100.0,0,1,100.0,0.0,New Visitor,bagscart.com
1,100.0,0,0,0.0,66.0,New Visitor,bagscart.com
1,100.0,0,0,0.0,32.5,New Visitor,bagscart.com
1,100.0,0,1,100.0,0.0,New Visitor,bagscart.com
1,100.0,0,1,100.0,0.0,New Visitor,bangalore.burrp.com
1,100.0,0,1,100.0,0.0,New Visitor,bangalore.burrp.com
1,100.0,0,1,100.0,0.0,New Visitor,bangalore.burrp.com
1,100.0,0,0,0.0,85.33333333333333,New Visitor,bangalore.burrp.com
1,100.0,0,1,100.0,0.0,New Visitor,bangalore.burrp.com
1,100.0,0,0,0.0,66.66666666666667,New Visitor,bangalore.clickindia.com
1,100.0,0,1,100.0,0.0,New Visitor,bangalore.indialist.com
1,100.0,0,1,100.0,0.0,New Visitor,bangalore.locanto.in
1,100.0,0,1,100.0,0.0,New Visitor,bangalore.olx.in
1,100.0,0,1,100.0,0.0,New Visitor,bangalore.olx.in
2,100.0,0,1,50.0,108.0,New Visitor,bangalore.olx.in
1,100.0,0,1,100.0,0.0,New Visitor,bangalore.olx.in
3,100.0,0,2,66.66666666666666,68.6,New Visitor,bangalore.olx.in
1,100.0,0,1,100.0,0.0,New Visitor,bangalore.olx.in
1,100.0,0,1,100.0,0.0,New Visitor,bangalore.olx.in
1,100.0,0,1,100.0,0.0,New Visitor,bangalore.olx.in
2,100.0,0,1,50.0,41.666666666666664,New Visitor,bangalore.olx.in
3,100.0,0,2,66.66666666666666,49.75,New Visitor,bangalore.olx.in
1,100.0,0,1,100.0,0.0,New Visitor,bangalore.olx.in
1,100.0,0,1,100.0,0.0,New Visitor,bangalore.olx.in
2,100.0,0,2,100.0,0.0,New Visitor,bangalore.olx.in
1,100.0,0,1,100.0,0.0,New Visitor,bangalore.quikr.com
1,100.0,0,1,100.0,0.0,New Visitor,bangalore.quikr.com
1,100.0,0,0,0.0,30.0,New Visitor,bangalore.quikr.com
3,100.0,0,0,0.0,29.896103896103895,New Visitor,bangalore.quikr.com
3,100.0,0,3,100.0,0.0,New Visitor,bangalore.quikr.com
3,100.0,0,0,0.0,81.6,New Visitor,bangalore.quikr.com
2,100.0,0,1,50.0,45.5,New Visitor,bangalore.quikr.com
1,100.0,0,1,100.0,0.0,New Visitor,bangalore.quikr.com
1,100.0,0,0,0.0,7.0,New Visitor,bangalore.quikr.com
1,100.0,0,1,100.0,0.0,New Visitor,bangalore.quikr.com
1,100.0,0,0,0.0,63.0,New Visitor,bangalore.quikr.com
3,100.0,0,1,33.33333333333333,122.0,New Visitor,bangalore.quikr.com
1,100.0,0,0,0.0,49.0,New Visitor,bangalore.quikr.com
1,100.0,0,0,0.0,41.44444444444444,New Visitor,bangalore.yalwa.in
1,100.0,0,0,0.0,14.75,New Visitor,bangaloremirror.com
1,100.0,0,0,0.0,183.95454545454547,New Visitor,bangaloremirror.com
1,100.0,0,1,100.0,0.0,New Visitor,bannd.com
1,100.0,0,1,100.0,0.0,New Visitor,barganza.com
1,100.0,0,1,100.0,0.0,New Visitor,bargarh.olx.in
1,100.0,0,1,100.0,0.0,New Visitor,basketbags.com
1,100.0,0,1,100.0,0.0,New Visitor,bastylish.com
1,100.0,0,1,100.0,0.0,New Visitor,batta.co.in
2,100.0,0,2,100.0,0.0,New Visitor,bbci.com
1,100.0,0,1,100.0,0.0,New Visitor,bccci.com
1,100.0,0,1,100.0,0.0,New Visitor,becomegorgeous.com
1,100.0,0,1,100.0,0.0,New Visitor,becomegorgeous.com
3,100.0,0,2,66.66666666666666,141.75,New Visitor,becomegorgeous.com
1,100.0,0,0,0.0,28.208333333333332,New Visitor,becomegorgeous.com
1,100.0,0,1,100.0,0.0,New Visitor,becomegorgeous.com
1,100.0,0,1,100.0,0.0,New Visitor,becomegorgeous.com
1,100.0,0,0,0.0,42.46666666666667,New Visitor,becomegorgeous.com
1,100.0,0,0,0.0,166.5,New Visitor,becomegorgeous.com
1,100.0,0,1,100.0,0.0,New Visitor,bedroommedia.com
1,100.0,0,1,100.0,0.0,New Visitor,bengalimovie.com
1,100.0,0,1,100.0,0.0,New Visitor,bengalimovies.com
1,100.0,0,1,100.0,0.0,New Visitor,bengalinet.com
1,100.0,0,0,0.0,40.77777777777778,New Visitor,bestaylish.com
1,100.0,0,1,100.0,0.0,New Visitor,bestbuy.com
1,100.0,0,0,0.0,22.0,New Visitor,bestindiajewel.com
1,100.0,0,0,0.0,131.0,New Visitor,bestlish.com
1,100.0,0,0,0.0,0.0,New Visitor,bestlish.com
1,100.0,0,1,100.0,0.0,New Visitor,bestlish.com
1,100.0,0,1,100.0,0.0,New Visitor,bestlyish.com
1,100.0,0,1,100.0,0.0,New Visitor,bestlyish.com
1,100.0,0,1,100.0,0.0,New Visitor,beststyle.com
1,100.0,0,1,100.0,0.0,New Visitor,beststyle.com
1,100.0,0,1,100.0,0.0,New Visitor,beststyle.com
1,100.0,0,0,0.0,121.0,New Visitor,beststyle.com
1,100.0,0,1,100.0,0.0,New Visitor,beststyle.com
1,100.0,0,1,100.0,0.0,New Visitor,bestyalish.com
1,100.0,0,1,100.0,0.0,New Visitor,bestyalish.com
1,100.0,0,1,100.0,0.0,New Visitor,bestyilish.com
1,100.0,0,1,100.0,0.0,New Visitor,bestyilsh.com
1,100.0,0,1,100.0,0.0,New Visitor,bestyilsh.com
1,100.0,0,0,0.0,906.5,New Visitor,bestyleish.com
3,100.0,0,0,0.0,77.55555555555556,New Visitor,bestyleish.com
1,100.0,0,1,100.0,0.0,New Visitor,bestyleish.com
1,100.0,0,1,100.0,0.0,New Visitor,bestyleish.com
1,100.0,0,1,100.0,0.0,New Visitor,bestyleish.com
1,100.0,0,1,100.0,0.0,New Visitor,bestyleish.com
1,100.0,0,1,100.0,0.0,New Visitor,bestyleish.com
1,100.0,0,1,100.0,0.0,New Visitor,bestylesh.com
1,100.0,0,0,0.0,94.0,New Visitor,bestylesh.com
1,100.0,0,1,100.0,0.0,New Visitor,bestylise.com
1,100.0,0,1,100.0,0.0,New Visitor,bestylise.com
1,100.0,0,0,0.0,111.66666666666667,New Visitor,bestylish.co
1,100.0,0,1,100.0,0.0,New Visitor,bestylist.com
1,100.0,0,0,0.0,13.0,New Visitor,bestylist.com
1,100.0,0,0,0.0,26.0,New Visitor,bestylist.com
1,100.0,0,1,100.0,0.0,New Visitor,bestylist.com
1,100.0,0,1,100.0,0.0,New Visitor,bestyllish.com
1,100.0,0,0,0.0,42.666666666666664,New Visitor,besylish.com
1,100.0,0,1,100.0,0.0,New Visitor,besylish.com
1,100.0,0,1,100.0,0.0,New Visitor,betsylish.com
1,100.0,0,0,0.0,128.0,New Visitor,betylish.com
1,100.0,0,0,0.0,24.5,New Visitor,bgames.com
1,100.0,0,1,100.0,0.0,New Visitor,bhakthitv.com
3,100.0,0,1,33.33333333333333,30.5,New Visitor,bharatstudent.com
4,100.0,0,2,50.0,14.5,New Visitor,bharatstudent.com
3,100.0,0,3,100.0,0.0,New Visitor,bharatstudent.com
7,100.0,0,5,71.42857142857143,9.5,New Visitor,bharatstudent.com
8,100.0,0,3,37.5,40.22222222222222,New Visitor,bharatstudent.com
22,100.0,0,16,72.72727272727273,54.125,New Visitor,bharatstudent.com
19,100.0,0,10,52.63157894736842,60.0,New Visitor,bharatstudent.com
10,100.0,0,6,60.0,52.2,New Visitor,bharatstudent.com
81,100.0,0,39,48.148148148148145,38.15909090909091,New Visitor,bharatstudent.com
67,100.0,0,44,65.67164179104478,33.0,New Visitor,bharatstudent.com
83,100.0,0,45,54.21686746987952,47.63917525773196,New Visitor,bharatstudent.com
80,100.0,0,44,55.00000000000001,32.333333333333336,New Visitor,bharatstudent.com
50,100.0,0,35,70.0,20.363636363636363,New Visitor,bharatstudent.com
20,100.0,0,13,65.0,53.06666666666667,New Visitor,bharatstudent.com
1,100.0,0,1,100.0,0.0,New Visitor,bharthmovie.com
1,100.0,0,0,0.0,12.5,New Visitor,bhavnagar.olx.in
1,100.0,0,0,0.0,84.8,New Visitor,bhopal.locanto.in
1,100.0,0,0,0.0,42.94444444444444,New Visitor,bhopal.olx.in
1,100.0,0,1,100.0,0.0,New Visitor,bhopal.olx.in
1,100.0,0,1,100.0,0.0,New Visitor,bhopal.quikr.com
1,100.0,0,1,100.0,0.0,New Visitor,bhuj.olx.in
1,100.0,0,1,100.0,0.0,New Visitor,biba.com
1,100.0,0,0,0.0,134.71428571428572,New Visitor,biba.com
1,100.0,0,0,0.0,38.9375,New Visitor,bible.org
1,100.0,0,0,0.0,123.0,New Visitor,bigittoday.com
1,100.0,0,1,100.0,0.0,New Visitor,bigittoday.com
1,100.0,0,1,100.0,0.0,New Visitor,bigshoebaazar.com
1,100.0,0,1,100.0,0.0,New Visitor,bigshoebaazar.com
1,100.0,0,1,100.0,0.0,New Visitor,bigshoebazar.net
1,100.0,0,1,100.0,0.0,New Visitor,bigshoebazar.net
1,100.0,0,1,100.0,0.0,New Visitor,bikni.com
1,100.0,0,1,100.0,0.0,New Visitor,bikni.com
2,100.0,2,0,0.0,26.142857142857142,New Visitor,bing
1,100.0,1,0,0.0,383.0,New Visitor,bing
3,100.0,3,1,33.33333333333333,65.3,New Visitor,bing
1,100.0,1,0,0.0,104.0,New Visitor,bing
2,100.0,2,2,100.0,0.0,New Visitor,bing
2,100.0,2,1,50.0,64.5,New Visitor,bing
1,100.0,1,0,0.0,175.0,New Visitor,bing
2,100.0,2,1,50.0,55.21052631578947,New Visitor,bing
2,100.0,2,1,50.0,96.67692307692307,New Visitor,bing
3,100.0,3,1,33.33333333333333,53.92307692307692,New Visitor,bing
2,100.0,2,2,100.0,0.0,New Visitor,bing
1,100.0,1,1,100.0,0.0,New Visitor,bing
1,100.0,1,0,0.0,68.5,New Visitor,bing
1,100.0,1,1,100.0,0.0,New Visitor,bing
1,100.0,1,0,0.0,12.0,New Visitor,bing
2,100.0,2,1,50.0,8.5,New Visitor,bing
1,100.0,0,1,100.0,0.0,New Visitor,bioportfolio.com
9,100.0,0,5,55.55555555555556,44.85294117647059,New Visitor,biorhythmfree.com
5,100.0,0,3,60.0,38.45,New Visitor,biorhythmfree.com
4,100.0,0,1,25.0,93.06666666666666,New Visitor,biorhythmfree.com
3,100.0,0,1,33.33333333333333,29.0,New Visitor,biorhythmfree.com
4,100.0,0,0,0.0,182.2,New Visitor,biorhythmfree.com
1,100.0,0,1,100.0,0.0,New Visitor,biorhythmfree.com
3,100.0,0,0,0.0,160.25,New Visitor,biorhythmfree.com
1,100.0,0,0,0.0,44.666666666666664,New Visitor,biorhythmfree.com
4,100.0,0,1,25.0,42.294117647058826,New Visitor,biorhythmfree.com
2,100.0,0,1,50.0,27.677419354838708,New Visitor,biorhythmfree.com
1,100.0,0,0,0.0,41.0,New Visitor,biorhythmfree.com
1,100.0,0,0,0.0,79.66666666666667,New Visitor,biorhythmfree.com
1,100.0,0,0,0.0,203.33333333333334,New Visitor,biorhythmfree.com
1,100.0,0,0,0.0,43.0,New Visitor,biznmore.com
1,100.0,0,0,0.0,44.214285714285715,New Visitor,biztradeshows.com
1,100.0,0,1,100.0,0.0,New Visitor,biztradeshows.com
1,100.0,0,1,100.0,0.0,New Visitor,bizwin.hubpages.com
1,100.0,0,0,0.0,35.0,New Visitor,bl130w.blu130.mail.live.com
1,100.0,0,0,0.0,27.75,New Visitor,bl155w.blu155.mail.live.com
1,100.0,0,0,0.0,50.0,New Visitor,bl155w.blu155.mail.live.com
1,100.0,0,0,0.0,106.5,New Visitor,bl156w.blu156.mail.live.com
1,100.0,0,1,100.0,0.0,New Visitor,bl156w.blu156.mail.live.com
1,100.0,0,1,100.0,0.0,New Visitor,bl158w.blu158.mail.live.com
1,100.0,0,1,100.0,0.0,New Visitor,bl164w.blu164.mail.live.com
1,100.0,0,0,0.0,80.0,New Visitor,bl164w.blu164.mail.live.com
1,100.0,0,1,100.0,0.0,New Visitor,bl166w.blu166.mail.live.com
1,100.0,0,0,0.0,636.5,New Visitor,bl167w.blu167.mail.live.com
1,100.0,0,0,0.0,117.0,New Visitor,blackfrock.com
5,100.0,0,4,80.0,26.75,New Visitor,blekko.com
4,100.0,0,1,25.0,28.90909090909091,New Visitor,blekko.com
2,100.0,0,1,50.0,0.0,New Visitor,blekko.com
1,100.0,0,0,0.0,48.63636363636363,New Visitor,blekko.com
1,100.0,0,0,0.0,100.0,New Visitor,blekko.com
1,100.0,0,0,0.0,29.714285714285715,New Visitor,blekko.com
1,100.0,0,1,100.0,0.0,New Visitor,blekko.com
1,100.0,0,0,0.0,32.666666666666664,New Visitor,blekko.com
1,100.0,0,0,0.0,85.75,New Visitor,blessedbella.hubpages.com
1,100.0,0,0,0.0,140.0,New Visitor,blingee.com
1,100.0,0,1,100.0,0.0,New Visitor,blisteredthumbs.net
1,100.0,0,1,100.0,0.0,New Visitor,blog.craftzine.com
1,100.0,0,0,0.0,45.0,New Visitor,blogdolcevita.com
1,100.0,0,1,100.0,0.0,New Visitor,blogthings.com
1,100.0,0,1,100.0,0.0,New Visitor,blogthings.com
1,100.0,0,1,100.0,0.0,New Visitor,blogthings.com
1,100.0,0,1,100.0,0.0,New Visitor,bluebags.com
1,100.0,0,1,100.0,0.0,New Visitor,blurtit.com
1,100.0,0,1,100.0,0.0,New Visitor,bo-india.netratings.com
1,100.0,0,0,0.0,796.0,New Visitor,bo-india.netratings.com
1,100.0,0,0,0.0,183.6,New Visitor,boardofwisdom.com
1,100.0,0,0,0.0,535.0,New Visitor,boardofwisdom.com
1,100.0,0,1,100.0,0.0,New Visitor,boardofwisdom.com
1,100.0,0,1,100.0,0.0,New Visitor,boardofwisdom.com
1,100.0,0,1,100.0,0.0,New Visitor,boardofwisdom.com
1,100.0,0,0,0.0,163.0,New Visitor,boardofwisdom.com
1,100.0,0,0,0.0,134.5,New Visitor,boardofwisdom.com
1,100.0,0,1,100.0,0.0,New Visitor,boardofwisdom.com
1,100.0,0,1,100.0,0.0,New Visitor,boardreader.com
1,100.0,0,1,100.0,0.0,New Visitor,bodycare.becomegorgeous.com
1,100.0,0,0,0.0,131.0,New Visitor,bodycare.becomegorgeous.com
1,100.0,0,0,0.0,199.4,New Visitor,bodycareintl.com
1,100.0,0,1,100.0,0.0,New Visitor,bodyking.com
1,100.0,0,1,100.0,0.0,New Visitor,boldsky.com
1,100.0,0,1,100.0,0.0,New Visitor,boldsky.com
1,100.0,0,1,100.0,0.0,New Visitor,bolly4you.com
2,100.0,0,1,50.0,10.0,New Visitor,bollyexclusive.com
1,100.0,0,1,100.0,0.0,New Visitor,bollyexclusive.com
1,100.0,0,1,100.0,0.0,New Visitor,bollywoodhangama.com
1,100.0,0,0,0.0,26.5,New Visitor,bollywoodmantra.com
1,100.0,0,0,0.0,152.66666666666666,New Visitor,bollywoodmantra.com
1,100.0,0,1,100.0,0.0,New Visitor,bollywoodmantra.com
1,100.0,0,1,100.0,0.0,New Visitor,bollywoodmantra.com
1,100.0,0,0,0.0,55.5,New Visitor,bollywoodmantra.com
2,100.0,0,1,50.0,701.0,New Visitor,bollywoodmantra.com
1,100.0,0,1,100.0,0.0,New Visitor,bollywoodmantra.com
3,100.0,0,1,33.33333333333333,36.19402985074627,New Visitor,bollywoodmantra.com
1,100.0,0,1,100.0,0.0,New Visitor,bollywoodmantra.com
9,100.0,0,6,66.66666666666666,216.66666666666666,New Visitor,bollywoodmantra.com
2,100.0,0,2,100.0,0.0,New Visitor,bollywoodmantra.com
1,100.0,0,0,0.0,33.0,New Visitor,bollywoodmantra.com
6,100.0,0,4,66.66666666666666,40.80952380952381,New Visitor,bollywoodmantra.com
5,100.0,0,3,60.0,64.78947368421052,New Visitor,bollywoodmantra.com
3,100.0,0,2,66.66666666666666,340.0,New Visitor,bollywoodmantra.com
1,100.0,0,0,0.0,44.61538461538461,New Visitor,bopmyspace.com
1,100.0,0,1,100.0,0.0,New Visitor,bopmyspace.com
1,100.0,0,1,100.0,0.0,New Visitor,bossip.com
1,100.0,0,0,0.0,32.4,New Visitor,bostylish.com
3,100.0,0,3,100.0,0.0,New Visitor,bra.com
3,100.0,0,2,66.66666666666666,61.75,New Visitor,brainyquote.com
9,100.0,0,5,55.55555555555556,46.73076923076923,New Visitor,brainyquote.com
14,100.0,0,11,78.57142857142857,83.6,New Visitor,brainyquote.com
13,100.0,0,11,84.61538461538461,42.5,New Visitor,brainyquote.com
23,100.0,0,15,65.21739130434783,136.0,New Visitor,brainyquote.com
25,100.0,0,16,64.0,87.4,New Visitor,brainyquote.com
25,100.0,0,15,60.0,59.697916666666664,New Visitor,brainyquote.com
14,100.0,0,10,71.42857142857143,37.9375,New Visitor,brainyquote.com
11,100.0,0,8,72.72727272727273,22.11764705882353,New Visitor,brainyquote.com
11,100.0,0,9,81.81818181818183,131.33333333333334,New Visitor,brainyquote.com
5,100.0,0,4,80.0,77.77777777777777,New Visitor,brainyquote.com
5,100.0,0,4,80.0,54.15384615384615,New Visitor,brainyquote.com
1,100.0,0,1,100.0,0.0,New Visitor,brainyquote.com
3,100.0,0,2,66.66666666666666,66.5,New Visitor,brainyquote.com
1,100.0,0,1,100.0,0.0,New Visitor,brainyquote.com
2,100.0,0,1,50.0,38.625,New Visitor,brainyquote.com
1,100.0,0,1,100.0,0.0,New Visitor,brandsalliance.org
1,100.0,0,1,100.0,0.0,New Visitor,brandsalliance.org
1,100.0,0,1,100.0,0.0,New Visitor,brandsalliance.org
1,100.0,0,0,0.0,38.5,New Visitor,brandsalliance.org
1,100.0,0,1,100.0,0.0,New Visitor,brandsoftheworld.com
1,100.0,0,0,0.0,5.0,New Visitor,broadband.india-forums.com
2,100.0,0,0,0.0,32.375,New Visitor,bsasbuscador.com
1,100.0,0,1,100.0,0.0,New Visitor,bsasbuscador.com
1,100.0,0,1,100.0,0.0,New Visitor,bsasbuscador.com
1,100.0,0,0,0.0,32.0,New Visitor,bsasvideo.com
1,100.0,0,0,0.0,47.75,New Visitor,bsasvideo.com
1,100.0,0,0,0.0,8.0,New Visitor,bsasvideo.com
1,100.0,0,1,100.0,0.0,New Visitor,bsfun.com
1,100.0,0,0,0.0,44.8,New Visitor,bsfun.com
1,100.0,0,1,100.0,0.0,New Visitor,bstylist.com
1,100.0,0,0,0.0,61.8,New Visitor,budgetstyle.about.com
1,100.0,0,0,0.0,124.0,New Visitor,bulbunit.com
1,100.0,0,1,100.0,0.0,New Visitor,business-standard.com
1,100.0,0,1,100.0,0.0,New Visitor,business.com
1,100.0,0,1,100.0,0.0,New Visitor,business.com
1,100.0,0,1,100.0,0.0,New Visitor,business.com
1,100.0,0,1,100.0,0.0,New Visitor,business.com
1,100.0,0,1,100.0,0.0,New Visitor,business.mapsofindia.com
1,100.0,0,1,100.0,0.0,New Visitor,business.mapsofindia.com
1,100.0,0,1,100.0,0.0,New Visitor,business2community.com
1,100.0,0,1,100.0,0.0,New Visitor,businesshighlight.org
1,100.0,0,0,0.0,28.333333333333332,New Visitor,busquedaespana.com
1,100.0,0,0,0.0,47.57142857142857,New Visitor,butterick.mccall.com
1,100.0,0,1,100.0,0.0,New Visitor,buy.vivastreet.co.in
1,100.0,0,0,0.0,442.0,New Visitor,buy.vivastreet.co.in
1,100.0,0,1,100.0,0.0,New Visitor,buy.vivastreet.co.in
1,100.0,0,1,100.0,0.0,New Visitor,buycheapr.com
1,100.0,0,1,100.0,0.0,New Visitor,buzzle.com
1,100.0,0,1,100.0,0.0,New Visitor,buzzle.com
1,100.0,0,0,0.0,309.0,New Visitor,buzzle.com
1,100.0,0,0,0.0,92.66666666666667,New Visitor,buzzle.com
1,100.0,0,0,0.0,125.5,New Visitor,buzzle.com
1,100.0,0,1,100.0,0.0,New Visitor,by145w.bay145.mail.live.com
1,100.0,0,0,0.0,66.66666666666667,New Visitor,by145w.bay145.mail.live.com
1,100.0,0,1,100.0,0.0,New Visitor,by147w.bay147.mail.live.com
1,100.0,0,0,0.0,42.0,New Visitor,by148w.bay148.mail.live.com
1,100.0,0,0,0.0,206.45454545454547,New Visitor,by151w.bay151.mail.live.com
1,100.0,0,0,0.0,127.75,New Visitor,by154w.bay154.mail.live.com
1,100.0,0,1,100.0,0.0,New Visitor,by157w.bay157.mail.live.com
1,100.0,0,0,0.0,15.3,New Visitor,by158w.bay158.mail.live.com
1,100.0,0,0,0.0,65.66666666666667,New Visitor,by159w.bay159.mail.live.com
1,100.0,0,0,0.0,30.0,New Visitor,by163w.bay163.mail.live.com
1,100.0,0,1,100.0,0.0,New Visitor,by165w.bay165.mail.live.com
1,100.0,0,1,100.0,0.0,New Visitor,by167w.bay167.mail.live.com
1,100.0,0,0,0.0,35.75,New Visitor,by167w.bay167.mail.live.com
1,100.0,0,1,100.0,0.0,New Visitor,by170w.bay170.mail.live.com
1,100.0,0,0,0.0,124.375,New Visitor,by171w.bay171.mail.live.com
1,100.0,0,1,100.0,0.0,New Visitor,by171w.bay171.mail.live.com
1,100.0,0,0,0.0,60.714285714285715,New Visitor,by171w.bay171.mail.live.com
1,100.0,0,0,0.0,113.42857142857143,New Visitor,by171w.bay171.mail.live.com
1,100.0,0,0,0.0,56.5,New Visitor,by171w.bay171.mail.live.com
4,100.0,0,3,75.0,76.04166666666667,New Visitor,c2.zedo.com
1,100.0,0,1,100.0,0.0,New Visitor,c2.zedo.com
1,100.0,0,1,100.0,0.0,New Visitor,c2.zedo.com
1,100.0,0,1,100.0,0.0,New Visitor,c2.zedo.com
1,100.0,0,0,0.0,71.81818181818181,New Visitor,ca.mc1614.mail.yahoo.com
2,100.0,0,1,50.0,164.0,New Visitor,cache.mindjolt.com
3,100.0,0,2,66.66666666666666,26.0,New Visitor,cache.mindjolt.com
4,100.0,0,3,75.0,38.61538461538461,New Visitor,cache.mindjolt.com
3,100.0,0,1,33.33333333333333,127.375,New Visitor,cache.mindjolt.com
1,100.0,0,1,100.0,0.0,New Visitor,cache.mindjolt.com
1,100.0,0,0,0.0,124.83333333333333,New Visitor,california.inetgiant.com
1,100.0,0,0,0.0,48.0,New Visitor,california.olx.com
1,100.0,0,1,100.0,0.0,New Visitor,capetownmagazine.com
1,100.0,0,0,0.0,30.0,New Visitor,cardealsearch.net
1,100.0,0,0,0.0,71.0,New Visitor,cardealsearch.net
2,100.0,0,1,50.0,237.66666666666666,New Visitor,cardekho.com
1,100.0,0,1,100.0,0.0,New Visitor,cardekho.com
1,100.0,0,1,100.0,0.0,New Visitor,cardekho.com
2,100.0,0,2,100.0,0.0,New Visitor,cardekho.com
2,100.0,0,1,50.0,77.625,New Visitor,cardekho.com
1,100.0,0,1,100.0,0.0,New Visitor,cardekho.com
1,100.0,0,1,100.0,0.0,New Visitor,cardekho.com
1,100.0,0,1,100.0,0.0,New Visitor,cardekho.com
2,100.0,0,2,100.0,0.0,New Visitor,cardekho.com
1,100.0,0,1,100.0,0.0,New Visitor,careers.stateuniversity.com
1,100.0,0,1,100.0,0.0,New Visitor,carnivel.com
1,100.0,0,1,100.0,0.0,New Visitor,carsonshoes.com
1,100.0,0,1,100.0,0.0,New Visitor,catalogs.indiamart.com
1,100.0,0,0,0.0,338.5,New Visitor,catalogs.indiamart.com
1,100.0,0,0,0.0,63.0,New Visitor,catalogs.indiamart.com
2,100.0,0,2,100.0,0.0,New Visitor,catalogs.indiamart.com
1,100.0,0,1,100.0,0.0,New Visitor,catalogs.indiamart.com
1,100.0,0,0,0.0,14.625,New Visitor,catalogs.indiamart.com
1,100.0,0,1,100.0,0.0,New Visitor,catalogs.indiamart.com
2,100.0,0,1,50.0,30.0,New Visitor,catalogs.indiamart.com
2,100.0,0,0,0.0,66.27777777777777,New Visitor,catalogs.indiamart.com
2,100.0,0,1,50.0,223.0,New Visitor,catalogs.indiamart.com
1,100.0,0,0,0.0,2.6666666666666665,New Visitor,catalogs.indiamart.com
4,100.0,0,2,50.0,59.8,New Visitor,catalogs.indiamart.com
1,100.0,0,1,100.0,0.0,New Visitor,catalogs.indiamart.com
1,100.0,0,1,100.0,0.0,New Visitor,catalogs.indiamart.com
1,100.0,0,1,100.0,0.0,New Visitor,catalogs.indiamart.com
1,100.0,0,1,100.0,0.0,New Visitor,catalogs.indiamart.com
2,100.0,0,1,50.0,11.0,New Visitor,catalogs.indiamart.com
1,100.0,0,0,0.0,527.3333333333334,New Visitor,catalogs.indiamart.com
1,100.0,0,0,0.0,73.375,New Visitor,catalogs.indiamart.com
2,100.0,0,1,50.0,31.0,New Visitor,catalogs.indiamart.com
1,100.0,0,1,100.0,0.0,New Visitor,catalogs.indiamart.com
1,100.0,0,0,0.0,289.5,New Visitor,catalogs.indiamart.com
1,100.0,0,1,100.0,0.0,New Visitor,cattool1.data.corp.sp1.yahoo.com
1,100.0,0,1,100.0,0.0,New Visitor,cdn.buzznet.com
1,100.0,0,0,0.0,32.84615384615385,New Visitor,cdn.buzznet.com
1,100.0,0,0,0.0,182.33333333333334,New Visitor,cdn.mediatakeout.com
1,100.0,0,0,0.0,25.0,New Visitor,celebrityclothingline.com
1,100.0,0,1,100.0,0.0,New Visitor,celebs.gather.com
1,100.0,0,1,100.0,0.0,New Visitor,celebs.gather.com
1,100.0,0,0,0.0,132.5,New Visitor,cgchannel.com
1,100.0,0,0,0.0,37.0,New Visitor,chacha.com
1,100.0,0,0,0.0,53.714285714285715,New Visitor,chacha.com
1,100.0,0,1,100.0,0.0,New Visitor,chacha.com
1,100.0,0,1,100.0,0.0,New Visitor,chacha.com
1,100.0,0,1,100.0,0.0,New Visitor,chacha.com
1,100.0,0,0,0.0,69.0,New Visitor,chandigarh.burrp.com
1,100.0,0,1,100.0,0.0,New Visitor,chandigarh.olx.in
1,100.0,0,1,100.0,0.0,New Visitor,chandigarh.quikr.com
1,100.0,0,1,100.0,0.0,New Visitor,chandigarh.quikr.com
1,100.0,0,0,0.0,129.0,New Visitor,chandigarh.quikr.com
1,100.0,0,1,100.0,0.0,New Visitor,chandigarhcity.olx.in
1,100.0,0,1,100.0,0.0,New Visitor,chandigarhcity.olx.in
1,100.0,0,1,100.0,0.0,New Visitor,chandigarhcity.olx.in
1,100.0,0,0,0.0,58.5,New Visitor,chandigarhcity.olx.in
1,100.0,0,1,100.0,0.0,New Visitor,chandkheda.olx.in
1,100.0,0,1,100.0,0.0,New Visitor,chanel-on-sales.com
1,100.0,0,1,100.0,0.0,New Visitor,channel.com
1,100.0,0,0,0.0,23.75,New Visitor,channel.com
1,100.0,0,0,0.0,248.66666666666666,New Visitor,chappal.com
1,100.0,0,1,100.0,0.0,New Visitor,cheapdesignerbags.com
1,100.0,0,0,0.0,69.2,New Visitor,cheapshop.com
1,100.0,0,1,100.0,0.0,New Visitor,chennai.burrp.com
1,100.0,0,0,0.0,142.5,New Visitor,chennai.clickindia.com
2,100.0,0,1,50.0,43.142857142857146,New Visitor,chennai.olx.in
1,100.0,0,0,0.0,7.666666666666667,New Visitor,chennai.olx.in
1,100.0,0,1,100.0,0.0,New Visitor,chennai.olx.in
1,100.0,0,1,100.0,0.0,New Visitor,chennai.olx.in
2,100.0,0,1,50.0,31.083333333333332,New Visitor,chennai.quikr.com
1,100.0,0,1,100.0,0.0,New Visitor,chennai.quikr.com
1,100.0,0,0,0.0,25.0,New Visitor,chennai.quikr.com
1,100.0,0,1,100.0,0.0,New Visitor,chennai.quikr.com
1,100.0,0,0,0.0,26.0,New Visitor,chennai.quikr.com
1,100.0,0,1,100.0,0.0,New Visitor,chennai.quikr.com
1,100.0,0,1,100.0,0.0,New Visitor,chennai.quikr.com
1,100.0,0,0,0.0,49.791666666666664,New Visitor,chictopia.com
1,100.0,0,1,100.0,0.0,New Visitor,chictopia.com
1,100.0,0,0,0.0,108.33333333333333,New Visitor,chictopia.com
1,100.0,0,0,0.0,70.66666666666667,New Visitor,chictopia.com
1,100.0,0,0,0.0,29.266666666666666,New Visitor,chictopia.com
1,100.0,0,0,0.0,61.8125,New Visitor,chictopia.com
1,100.0,0,0,0.0,31.0,New Visitor,chictopia.com
1,100.0,0,1,100.0,0.0,New Visitor,chictopia.com
1,100.0,0,1,100.0,0.0,New Visitor,chillnmasti.com
1,100.0,0,1,100.0,0.0,New Visitor,chinasmack.com
1,100.0,0,0,0.0,43.0,New Visitor,chinasmack.com
26,100.0,0,5,19.230769230769234,60.94838709677419,New Visitor,chingoracle.com
